[gd_scene load_steps=3 format=2]

[ext_resource path="res://assets/ttf/ofl/PressStart2P-Regular.ttf" type="DynamicFontData" id=1]

[sub_resource type="DynamicFont" id=1]
size = 4
font_data = ExtResource( 1 )

[node name="Logo" type="CenterContainer"]
margin_right = 480.0
margin_bottom = 95.0

[node name="Label" type="Label" parent="."]
margin_left = 24.0
margin_right = 456.0
margin_bottom = 95.0
custom_fonts/font = SubResource( 1 )
text = "                                                $$$$$\\           $$\\                    
                                                \\__$$ |          $$ |                     
                                                   $$ | $$$$$$\\  $$$$$$$\\  $$$$$$$\\       
                                                   $$ |$$  __$$\\ $$  __$$\\ $$  __$$\\      
                                             $$\\   $$ |$$ /  $$ |$$ |  $$ |$$ |  $$ |     
                                             $$ |  $$ |$$ |  $$ |$$ |  $$ |$$ |  $$ |     
 $$$$$$\\                 $$$$$$\\     $$$$$$\\ \\$$$$$$  |\\$$$$$$  |$$ |  $$ |$$ |  $$ |$$$$$\\               
$$  __$$\\               $$  __$$\\   $$  __$$\\ \\______/  \\______/ \\__|  \\__|\\__|  \\__|\\__$$ |              
$$ /  \\__|   $$$$$$\\    $$ /  \\__|  $$ /  \\__|     $$$$$$\\       $$$$$$\\                $$ |   $$$$$$\\      
$$ |        $$  __$$\\   $$$$\\       $$$$\\         $$  __$$\\     $$  __$$\\               $$ |  $$  __$$\\     
$$ |        $$ /  $$ |  $$  _|      $$  _|        $$$$$$$$ |    $$$$$$$$ |        $$\\   $$ |  $$ |  \\__|    
$$ |  $$\\   $$ |  $$ |  $$ |        $$ |          $$   ____|    $$   ____|        $$ |  $$ |  $$ |          
\\$$$$$$  |  \\$$$$$$  |  $$ |        $$ |          \\$$$$$$$\\     \\$$$$$$$\\         \\$$$$$$  |  $$ |      $$\\ 
 \\______/    \\______/   \\__|        \\__|           \\_______|     \\_______|         \\______/   \\__|      \\__|"
